…
## 05 alt-text {.center background="linear-gradient(to bottom right, #82F6BA44, #99C0E844)"}

Picture of the following code:

``` r
library(embed)

data(flights, package = "nycflights13")

recipe(arr_delay ~ carrier + tailnum + origin + dest, data = flights) |>
  step_lencode_mixed(all_nominal_predictors(), outcome = vars(arr_delay)) |>
  prep() |>
  bake(new_data = NULL)
#> # A tibble: 336,776 × 5
#>    carrier tailnum origin   dest arr_delay
#>      <dbl>   <dbl>  <dbl>  <dbl>     <dbl>
#>  1   3.56    4.51    9.10  4.27         11
#>  2   3.56    7.34    5.79  4.27         20
#>  3   0.370   6.78    5.56  0.331        33
#>  4   9.46   -0.360   5.56  8.29        -18
#>  5   1.65    4.49    5.79 11.3         -25
#>  6   3.56    3.46    9.10  5.88         12
#>  7   9.46   11.2     9.10  8.09         19
#>  8  15.8    15.2     5.79 13.8         -14
#>  9   9.46   11.8     5.56  5.47         -8
#> 10   0.370   4.79    5.79  5.88          8
#> # ℹ 336,766 more rows
```
…
``` r
library(embed)

data(diamonds, package = "ggplot2")

set.seed(1234)

recipe(price ~ ., data = diamonds) |>
  step_dummy(all_nominal_predictors()) |>
  step_normalize(all_numeric_predictors()) |>
  step_umap(all_numeric_predictors()) |>
  prep() |>
  bake(new_data = NULL)
#> # A tibble: 53,940 × 3
#>    price   UMAP1   UMAP2
#>    <int>   <dbl>   <dbl>
#>  1   326  -0.605   5.56 
#>  2   326  -1.17  -16.8  
#>  3   327  -1.78   -5.43 
#>  4   334 -10.7   -12.3  
#>  5   335  14.2     2.66 
#>  6   336   2.50    1.79 
#>  7   336  -5.48    0.914
#>  8   337   7.39   -5.29 
#>  9   337  -1.43   -5.95 
#> 10   338  -6.38   -0.785
#> # ℹ 53,930 more rows
```
…
Picture of the following code:

``` r
library(recipes)

data(ames, package = "modeldata")

recipe(~ Lot_Frontage + Lot_Area, data = ames) |>
  step_discretize(all_numeric_predictors(), num_breaks = 5) |>
  prep() |>
  bake(new_data = NULL)
#> Warning: Note that the options `prefix` and `labels` will be applied to all
#> variables
#> # A tibble: 2,930 × 2
#>    Lot_Frontage Lot_Area
#>    <fct>        <fct>   
#>  1 bin5         bin5    
#>  2 bin4         bin4    
#>  3 bin5         bin5    
#>  4 bin5         bin4    
#>  5 bin4         bin5    
#>  6 bin4         bin3    
#>  7 bin2         bin1    
#>  8 bin2         bin1    
#>  9 bin2         bin1    
#> 10 bin2         bin2    
#> # ℹ 2,920 more rows
```
…
Picture of the following code:

``` r
library(recipes)

example_data <- tibble(
  year = 1700:1988,
  n_sunspot = sunspot.year
)

recipe(n_sunspot ~ year, data = example_data) |>
  step_harmonic(year, frequency = 1 / 11, cycle_size = 1) |>
  prep() |>
  bake(new_data = NULL)
#> # A tibble: 289 × 3
#>    n_sunspot year_sin_1 year_cos_1
#>        <dbl>      <dbl>      <dbl>
#>  1         5  -2.82e- 1     -0.959
#>  2        11  -7.56e- 1     -0.655
#>  3        16  -9.90e- 1     -0.142
#>  4        23  -9.10e- 1      0.415
#>  5        36  -5.41e- 1      0.841
#>  6        58   6.86e-14      1    
#>  7        29   5.41e- 1      0.841
#>  8        20   9.10e- 1      0.415
#>  9        10   9.90e- 1     -0.142
#> 10         8   7.56e- 1     -0.655
#> # ℹ 279 more rows
```
…
## 10 alt-text {.center background="linear-gradient(to bottom right, #F6D36544, #FD9F8644)"}

Picture of the following code:

``` r
library(recipes)
library(bestNormalize)

data(ames, package = "modeldata")

recipe(Sale_Price ~ Lot_Frontage + Lot_Area, data = ames) |>
  step_best_normalize(all_numeric_predictors()) |>
  prep() |>
  bake(new_data = NULL)
#> # A tibble: 2,930 × 3
#>    Lot_Frontage Lot_Area Sale_Price
#>           <dbl>    <dbl>      <int>
#>  1        2.48     2.29      215000
#>  2        0.789    0.689     105000
#>  3        0.883    1.28      172000
#>  4        1.33     0.574     244000
#>  5        0.468    1.19      189900
#>  6        0.656    0.201     195500
#>  7       -0.702   -1.27      213500
#>  8       -0.669   -1.24      191500
#>  9       -0.735   -1.19      236500
#> 10       -0.170   -0.654     189000
#> # ℹ 2,920 more rows
```
…
``` r
library(recipes)
library(Matrix) # needs to be loaded for step to work

data(ames, package = "modeldata")

recipe(Sale_Price ~ ., data = ames) |>
  step_dummy(all_nominal_predictors()) |>
  step_nzv(all_numeric_predictors()) |>
  step_normalize(all_numeric_predictors()) |>
  step_nnmf_sparse(all_numeric_predictors()) |>
  prep() |>
  bake(new_data = NULL)
#> # A tibble: 2,930 × 3
#>    Sale_Price   NNMF1   NNMF2
#>         <int>   <dbl>   <dbl>
#>  1     215000  0.150  -0.616 
#>  2     105000 -0.375   0.104 
#>  3     172000 -0.180   0.0620
#>  4     244000  0.227  -0.304 
#>  5     189900  0.311  -0.136 
#>  6     195500  0.360  -0.300 
#>  7     213500  0.143  -0.300 
#>  8     191500  0.0581 -0.524 
#>  9     236500  0.266  -0.226 
#> 10     189000  0.323   0.0212
#> # ℹ 2,920 more rows
```
…
Picture of the following code:

``` r
library(recipes)
library(MachineShop)

set.seed(1234)

recipe(~., data = mtcars) |>
  step_normalize(all_numeric_predictors()) |>
  step_kmeans(all_numeric_predictors(), k = 3) |>
  prep() |>
  bake(new_data = NULL)
#> # A tibble: 32 × 3
#>    KMeans1   KMeans2 KMeans3
#>      <dbl>     <dbl>   <dbl>
#>  1  0.583  -0.217     -0.823
#>  2  0.583  -0.165     -0.666
#>  3  0.634  -1.01       0.771
#>  4 -0.624  -0.309      1.00 
#>  5 -0.703   0.439     -0.666
#>  6 -0.910  -0.327      1.22 
#>  7 -0.857   0.918     -0.996
#>  8  0.125  -0.734      1.16 
#>  9  0.166  -0.655      1.97 
#> 10  0.0166  0.000617   0.684
#> # ℹ 22 more rows
```
…
## 16 alt-text {.center background="linear-gradient(to bottom right, #D1FB7A44, #A3C5FD44)"}

Picture of the following code:

``` r
library(embed)

data(ames, package = "modeldata")

recipe(Sale_Price ~ Lot_Frontage + Lot_Area, data = ames) |>
  step_discretize_cart(all_numeric_predictors(), outcome = "Sale_Price") |>
  prep() |>
  bake(new_data = NULL)
#> # A tibble: 2,930 × 3
#>    Lot_Frontage Lot_Area              Sale_Price
#>    <fct>        <fct>                      <int>
#>  1 [118.5, Inf] [1.341e+04, Inf]          215000
#>  2 [60.5,81.5)  [1.093e+04,1.341e+04)     105000
#>  3 [60.5,81.5)  [1.341e+04, Inf]          172000
#>  4 [81.5,94.5)  [1.093e+04,1.341e+04)     244000
#>  5 [60.5,81.5)  [1.341e+04, Inf]          189900
#>  6 [60.5,81.5)  [8639,1.093e+04)          195500
#>  7 [24.5,49.5)  [-Inf,8639)               213500
#>  8 [24.5,49.5)  [-Inf,8639)               191500
#>  9 [24.5,49.5)  [-Inf,8639)               236500
#> 10 [49.5,60.5)  [-Inf,8639)               189000
#> # ℹ 2,920 more rows
```
…
## 18 alt-text {.center background="linear-gradient(to bottom right, #89F7FE44, #F4828844)"}

Picture of the following code:

``` r
library(recipes)

data(penguins, package = "modeldata")

recipe(species ~ bill_length_mm + bill_depth_mm, data = penguins) |>
  step_impute_mean(all_numeric_predictors()) |>
  step_depth(all_numeric_predictors(), class = "species") |>
  prep() |>
  bake(new_data = NULL)
#> # A tibble: 344 × 6
#>    bill_length_mm bill_depth_mm species depth_Adelie depth_Chinstrap
#>             <dbl>         <dbl> <fct>          <dbl>           <dbl>
#>  1           39.1          18.7 Adelie       0.355            0     
#>  2           39.5          17.4 Adelie       0.145            0     
#>  3           40.3          18   Adelie       0.217            0     
#>  4           43.9          17.2 Adelie       0.00658          0.0735
#>  5           36.7          19.3 Adelie       0.0789           0     
#>  6           39.3          20.6 Adelie       0.0395           0     
#>  7           38.9          17.8 Adelie       0.329            0     
#>  8           39.2          19.6 Adelie       0.132            0     
#>  9           34.1          18.1 Adelie       0.0263           0     
#> 10           42            20.2 Adelie       0.0461           0     
#> # ℹ 334 more rows
#> # ℹ 1 more variable: depth_Gentoo <dbl>
```
…
## 19 alt-text {.center background="linear-gradient(to bottom right, #FBC78C44, #F5808544)"}

Picture of the following code:

``` r
library(recipes)

data(ames, package = "modeldata")

recipe(Sale_Price ~ Lot_Frontage + Lot_Area, data = ames) |>
  step_percentile(all_numeric_predictors()) |>
  prep() |>
  bake(new_data = NULL)
#> # A tibble: 2,930 × 3
#>    Lot_Frontage Lot_Area Sale_Price
#>           <dbl>    <dbl>      <int>
#>  1        0.990    0.989     215000
#>  2        0.77     0.756     105000
#>  3        0.81     0.898     172000
#>  4        0.91     0.717     244000
#>  5        0.68     0.883     189900
#>  6        0.74     0.580     195500
#>  7        0.24     0.104     213500
#>  8        0.25     0.106     191500
#>  9        0.231    0.120     236500
#> 10        0.39     0.259     189000
#> # ℹ 2,920 more rows
```
…
Picture of the following code:

``` r
library(recipes)

data(penguins, package = "modeldata")

recipe(species ~ ., data = penguins) |>
  step_impute_mean(bill_length_mm, bill_depth_mm) |>
  step_impute_median(body_mass_g, flipper_length_mm) |>
  step_impute_mode(sex) |>
  prep() |>
  bake(new_data = NULL)
#> # A tibble: 344 × 7
#>    island    bill_length_mm bill_depth_mm flipper_length_mm body_mass_g sex   
#>    <fct>              <dbl>         <dbl>             <int>       <int> <fct> 
#>  1 Torgersen           39.1          18.7               181        3750 male  
#>  2 Torgersen           39.5          17.4               186        3800 female
#>  3 Torgersen           40.3          18                 195        3250 female
#>  4 Torgersen           43.9          17.2               197        4050 male  
#>  5 Torgersen           36.7          19.3               193        3450 female
#>  6 Torgersen           39.3          20.6               190        3650 male  
#>  7 Torgersen           38.9          17.8               181        3625 female
#>  8 Torgersen           39.2          19.6               195        4675 male  
#>  9 Torgersen           34.1          18.1               193        3475 male  
#> 10 Torgersen           42            20.2               190        4250 male  
#> # ℹ 334 more rows
#> # ℹ 1 more variable: species <fct>
```
…
## 21 alt-text {.center background="linear-gradient(to bottom right, #F092F844, #FCEF8F44)"}

Picture of the following code:

``` r
library(recipes)

data(ames, package = "modeldata")

recipe(Sale_Price ~ Lot_Frontage + Lot_Area, data = ames) |>
  step_spline_nonnegative(starts_with("Lot_"), deg_free = 3) |>
  prep() |>
  bake(new_data = NULL)
#> # A tibble: 2,930 × 7
#>    Sale_Price Lot_Frontage_1 Lot_Frontage_2 Lot_Frontage_3 Lot_Area_1 Lot_Area_2
#>         <int>          <dbl>          <dbl>          <dbl>      <dbl>      <dbl>
#>  1     215000        0.00522       0.00428       0.00117      5.87e-6    9.76e-7
#>  2     105000        0.00543       0.00186       0.000213     2.45e-6    1.24e-7
#>  3     172000        0.00545       0.00190       0.000221     3.00e-6    1.94e-7
#>  4     244000        0.00563       0.00238       0.000335     2.35e-6    1.14e-7
#>  5     189900        0.00528       0.00164       0.000169     2.91e-6    1.81e-7
#>  6     195500        0.00539       0.00179       0.000198     2.09e-6    8.85e-8
#>  7     213500        0.00379       0.000572      0.0000287    9.17e-7    1.58e-8
#>  8     191500        0.00392       0.000624      0.0000331    9.38e-7    1.65e-8
#>  9     236500        0.00366       0.000521      0.0000247    1.03e-6    2.01e-8
#> 10     189000        0.00480       0.00114       0.0000900    1.53e-6    4.57e-8
#> # ℹ 2,920 more rows
#> # ℹ 1 more variable: Lot_Area_3 <dbl>
```
…
## 24 alt-text {.center background="linear-gradient(to bottom right, #F093FA44, #DFC3FD44)"}

Picture of the following code:

``` r
library(textrecipes)

data(ames, package = "modeldata")

recipe(Sale_Price ~ Neighborhood, data = ames) |>
  step_dummy_hash(Neighborhood, num_terms = 4) |> # Low for example
  prep() |>
  bake(new_data = NULL)
#> # A tibble: 2,930 × 5
#>    Sale_Price dummyhash_Neighborhood_1 dummyhash_Neighborhood_2
#>         <int>                    <int>                    <int>
#>  1     215000                        0                       -1
#>  2     105000                        0                       -1
#>  3     172000                        0                       -1
#>  4     244000                        0                       -1
#>  5     189900                        0                        0
#>  6     195500                        0                        0
#>  7     213500                        0                        0
#>  8     191500                        0                        0
#>  9     236500                        0                        0
#> 10     189000                        0                        0
#> # ℹ 2,920 more rows
#> # ℹ 2 more variables: dummyhash_Neighborhood_3 <int>,
#> #   dummyhash_Neighborhood_4 <int>
```
…
## 25 alt-text {.center background="linear-gradient(to bottom right, #F4597244, #F4828844)"}

Picture of the following code:

``` r
library(recipes)

recipe(mpg ~ wt + gear, data = mtcars) |>
  step_mutate(
    wt_kg = wt * 0.453592,
    gear_four = gear == 4
  ) |>
  prep() |>
  bake(new_data = NULL)
#> # A tibble: 32 × 5
#>       wt  gear   mpg wt_kg gear_four
#>    <dbl> <dbl> <dbl> <dbl> <lgl>    
#>  1  2.62     4  21    1.19 TRUE     
#>  2  2.88     4  21    1.30 TRUE     
#>  3  2.32     4  22.8  1.05 TRUE     
#>  4  3.22     3  21.4  1.46 FALSE    
#>  5  3.44     3  18.7  1.56 FALSE    
#>  6  3.46     3  18.1  1.57 FALSE    
#>  7  3.57     3  14.3  1.62 FALSE    
#>  8  3.19     4  24.4  1.45 TRUE     
#>  9  3.15     4  22.8  1.43 TRUE     
#> 10  3.44     4  19.2  1.56 TRUE     
#> # ℹ 22 more rows
```
